Data Portfolio - Game of Thrones Survival Analysis
…
Show the code

ds

# A tibble: 359 × 41
      id name        sex relig…¹ occup…² socia…³ alleg…⁴ alleg…⁵ intro…⁶ intro…⁷
   <dbl> <chr>     <dbl>   <dbl>   <dbl>   <dbl>   <dbl>   <dbl>   <dbl>   <dbl>
 1   100 Waymar R…     1       9       2       2       3       1       1       1
 2   101 Gared Tu…     1       9       2       2       3       1       1       1
 3   102 Will          1       9       2       2       3       1       1       1
 4   103 Irri          2       1       2       2       2       2       1       1
 5   104 Jon Snow      1       4       2       1       3       2       1       1
 6   105 Bran Sta…     1       4       1       1       1       1       1       1
 7   106 Robb Sta…     1       3       1       1       1       1       1       1
 8   107 Rodrik C…     1       9       2       2       1       1       1       1
 9   108 Rickon S…     1       4       9       1       1       1       1       1
10   109 Eddard S…     1       4       1       1       8       1       1       1
# … with 349 more rows, 31 more variables: intro_time_sec <dbl>,
#   intro_time_hrs <dbl>, dth_flag <dbl>, dth_season <dbl>, dth_episode <dbl>,
#   dth_time_sec <dbl>, dth_time_hrs <dbl>, censor_time_sec <dbl>,
#   censor_time_hrs <dbl>, exp_season <dbl>, exp_episode <dbl>,
#   exp_time_sec <dbl>, exp_time_hrs <dbl>, featured_episode_count <dbl>,
#   prominence <dbl>, dth_description <chr>, icd10_dx_code <chr>,
#   icd10_dx_text <chr>, icd10_cause_code <chr>, icd10_cause_text <chr>, …
…
